…
#### **扩大分析范围**

下一步，我们概括之前的代码，以便所有计算都可以处理任意符号向量（例如，索引的所有组成部分）。遵循整洁的原则，下载数据、绘制价格时间序列以及将任意数量的资产的汇总统计数据制成表格是非常容易的。

这就是`tidyverse`魔法开始的地方：整洁的数据使得将之前的计算推广到您喜欢的任意数量的资产变得非常容易。以下代码采用任何符号向量（例如 ）`symbol <- c("AAPL", "MMM", "BA")`，并自动下载以及价格时间序列的绘图。最后，我们为任意数量的资产创建汇总统计表。[我们使用道琼斯工业平均指数](https://translate.google.com/website?sl=auto&tl=zh-CN&hl=zh-CN&client=webapp&u=https://en.wikipedia.org/wiki/Dow_Jones_Industrial_Average)当前所有成分股的数据进行分析。

```{r}
symbols <- tq_index("DOW") |> 
  filter(company != "US DOLLAR")
symbols
```

``` r
# A tibble: 30 × 8
  symbol company           identifier sedol weight sector shares_held
  <chr>  <chr>             <chr>      <chr>  <dbl> <chr>        <dbl>
1 UNH    UNITEDHEALTH GRO… 91324P102  2917… 0.0943 -          5803926
2 GS     GOLDMAN SACHS GR… 38141G104  2407… 0.0678 -          5803926
3 MSFT   MICROSOFT CORP    594918104  2588… 0.0645 -          5803926
4 HD     HOME DEPOT INC    437076102  2434… 0.0602 -          5803926
5 AMGN   AMGEN INC         031162100  2023… 0.0532 -          5803926
# ℹ 25 more rows
# ℹ 1 more variable: local_currency <chr>
```
…
