…
如果我们想将整个表保存在内存中，我们就需要`collect()`它。您将在接下来的章节中看到我们定期将数据加载到内存中。

```{r}
factors_ff3_monthly_db |>
  select(month, rf) |>
  collect()
# A tibble: 756 × 2
  month          rf
  <date>      <dbl>
1 1960-01-01 0.0033
2 1960-02-01 0.0029
3 1960-03-01 0.0035
4 1960-04-01 0.0019
5 1960-05-01 0.0027
# ℹ 751 more rows
```
…
